Convert to an Islamic date — as_islamic • calcal
…
    Examples

as_islamic("2016-01-01")
#> <Islamic[1]>
#> [1] 1437-Rab1-20
as_islamic(Sys.Date())
#> <Islamic[1]>
#> [1] 1446-Dhu'l_H-08
tibble::tibble(
  x = seq(as.Date("2025-01-01"), as.Date("2025-12-31"), by = "day"),
  y = as_islamic(x)
)
#> # A tibble: 365 × 2
#>    x                    y
#>    <date>           <Hij>
#>  1 2025-01-01 1446-Raj-01
#>  2 2025-01-02 1446-Raj-02
#>  3 2025-01-03 1446-Raj-03
#>  4 2025-01-04 1446-Raj-04
#>  5 2025-01-05 1446-Raj-05
#>  6 2025-01-06 1446-Raj-06
#>  7 2025-01-07 1446-Raj-07
#>  8 2025-01-08 1446-Raj-08
#>  9 2025-01-09 1446-Raj-09
#> 10 2025-01-10 1446-Raj-10
#> # ℹ 355 more rows
…
