Baháʼí dates — bahai_date • calcal
…
    Value

    A bahai vector object

    See also

    cal_bahai, bahai_new_year

    Examples

tibble::tibble(
 gregorian = gregorian_date(2025, 1, 1:31),
 bahai = as_bahai(gregorian)
)
#> # A tibble: 31 × 2
#>     gregorian          bahai
#>         <Gre>          <Bah>
#>  1 2025-NA-01 01-10-10-16-02
#>  2 2025-NA-02 01-10-10-16-03
#>  3 2025-NA-03 01-10-10-16-04
#>  4 2025-NA-04 01-10-10-16-05
#>  5 2025-NA-05 01-10-10-16-06
#>  6 2025-NA-06 01-10-10-16-07
#>  7 2025-NA-07 01-10-10-16-08
#>  8 2025-NA-08 01-10-10-16-09
#>  9 2025-NA-09 01-10-10-16-10
#> 10 2025-NA-10 01-10-10-16-11
#> # ℹ 21 more rows
…
