…
A bahai vector object

## See also

[cal_bahai](https://pkg.robjhyndman.com/calcal/reference/new_calendar.md),
[bahai_new_year](https://pkg.robjhyndman.com/calcal/reference/bahai_new_year.md)

## Examples

``` r
tibble::tibble(
  gregorian = gregorian_date(2025, 2, 15) + 0:30,
  bahai = as_bahai(gregorian)
)
#> # A tibble: 31 × 2
#>      gregorian            bahai
#>          <Gre>            <Bah>
#>  1 2025-Feb-15 01-10-10-Mulk-09
#>  2 2025-Feb-16 01-10-10-Mulk-10
#>  3 2025-Feb-17 01-10-10-Mulk-11
#>  4 2025-Feb-18 01-10-10-Mulk-12
#>  5 2025-Feb-19 01-10-10-Mulk-13
#>  6 2025-Feb-20 01-10-10-Mulk-14
#>  7 2025-Feb-21 01-10-10-Mulk-15
#>  8 2025-Feb-22 01-10-10-Mulk-16
#>  9 2025-Feb-23 01-10-10-Mulk-17
#> 10 2025-Feb-24 01-10-10-Mulk-18
#> # ℹ 21 more rows
…
