…
#> [1] 78-42-05-16 78-42-05-17 78-42-05-18
chinese_date(78, 42, 5, FALSE, 16:18)
#> <chinese[3]>
#> [1] 78-42-05-16 78-42-05-17 78-42-05-18
as_date(chinese, calendar = cal_gregorian)
#> <gregorian[3]>
#> [1] 2025-Jun-11 2025-Jun-12 2025-Jun-13
as_date(Sys.Date(), calendar = cal_chinese)
#> <chinese[1]>
#> [1] 78-42-11-22
tibble::tibble(
  gregorian = gregorian_date(2025, 1, 1) + 0:364,
  chinese = as_chinese(gregorian)
)
#> # A tibble: 365 × 2
#>      gregorian     chinese
#>          <Gre>       <Chi>
#>  1 2025-Jan-01 78-41-12-02
#>  2 2025-Jan-02 78-41-12-03
#>  3 2025-Jan-03 78-41-12-04
#>  4 2025-Jan-04 78-41-12-05
#>  5 2025-Jan-05 78-41-12-06
#>  6 2025-Jan-06 78-41-12-07
#>  7 2025-Jan-07 78-41-12-08
#>  8 2025-Jan-08 78-41-12-09
#>  9 2025-Jan-09 78-41-12-10
#> 10 2025-Jan-10 78-41-12-11
#> # ℹ 355 more rows
…
