…
## See also

[cal_coptic](https://pkg.robjhyndman.com/calcal/reference/new_calendar.md),
[cal_ethiopic](https://pkg.robjhyndman.com/calcal/reference/new_calendar.md),
[coptic_christmas](https://pkg.robjhyndman.com/calcal/reference/christian.md)

## Examples

``` r
tibble::tibble(
  gregorian = gregorian_date(2025, 1, 1:31),
  coptic = as_coptic(gregorian),
  ethiopic = as_ethiopic(gregorian)
)
#> # A tibble: 31 × 3
#>      gregorian      coptic     ethiopic
#>          <Gre>       <Cop>        <Eth>
#>  1 2025-Jan-01 1741-Koi-23 2017-Takh-23
#>  2 2025-Jan-02 1741-Koi-24 2017-Takh-24
#>  3 2025-Jan-03 1741-Koi-25 2017-Takh-25
#>  4 2025-Jan-04 1741-Koi-26 2017-Takh-26
#>  5 2025-Jan-05 1741-Koi-27 2017-Takh-27
#>  6 2025-Jan-06 1741-Koi-28 2017-Takh-28
#>  7 2025-Jan-07 1741-Koi-29 2017-Takh-29
#>  8 2025-Jan-08 1741-Koi-30 2017-Takh-30
#>  9 2025-Jan-09 1741-Tob-01  2017-Ter-01
#> 10 2025-Jan-10 1741-Tob-02  2017-Ter-02
#> # ℹ 21 more rows
…
