…
as_date(Sys.Date(), calendar = cal_gregorian)
#> <gregorian[1]>
#> [1] 2025-Dec-30
as_gregorian(Sys.Date())
#> <gregorian[1]>
#> [1] 2025-Dec-30
as_gregorian("2016-01-01")
#> <gregorian[1]>
#> [1] 2016-Jan-01
tibble::tibble(
  x = seq(as.Date("2025-01-01"), as.Date("2025-12-31"), by = "day"),
  y = as_gregorian(x),
  z = as_date(x, calendar = cal_gregorian)
)
#> # A tibble: 365 × 3
#>    x                    y           z
#>    <date>           <Gre>       <Gre>
#>  1 2025-01-01 2025-Jan-01 2025-Jan-01
#>  2 2025-01-02 2025-Jan-02 2025-Jan-02
#>  3 2025-01-03 2025-Jan-03 2025-Jan-03
#>  4 2025-01-04 2025-Jan-04 2025-Jan-04
#>  5 2025-01-05 2025-Jan-05 2025-Jan-05
#>  6 2025-01-06 2025-Jan-06 2025-Jan-06
#>  7 2025-01-07 2025-Jan-07 2025-Jan-07
#>  8 2025-01-08 2025-Jan-08 2025-Jan-08
#>  9 2025-01-09 2025-Jan-09 2025-Jan-09
#> 10 2025-01-10 2025-Jan-10 2025-Jan-10
#> # ℹ 355 more rows
```
