…
#> [1] 5785-Sivan-02 5785-Sivan-03 5785-Sivan-04
hebrew_date(5785, 3, 2:4)
#> <hebrew[3]>
#> [1] 5785-Sivan-02 5785-Sivan-03 5785-Sivan-04
as_date(heb, calendar = cal_gregorian)
#> <gregorian[3]>
#> [1] 2025-May-29 2025-May-30 2025-May-31
as_date(Sys.Date(), calendar = cal_hebrew)
#> <hebrew[1]>
#> [1] 5786-Tevet-21
tibble::tibble(
  gregorian = gregorian_date(2025, 1, 1) + 0:364,
  hebrew = as_date(gregorian, calendar = cal_hebrew),
)
#> # A tibble: 365 × 2
#>      gregorian        hebrew
#>          <Gre>         <Heb>
#>  1 2025-Jan-01 5785-Tevet-01
#>  2 2025-Jan-02 5785-Tevet-02
#>  3 2025-Jan-03 5785-Tevet-03
#>  4 2025-Jan-04 5785-Tevet-04
#>  5 2025-Jan-05 5785-Tevet-05
#>  6 2025-Jan-06 5785-Tevet-06
#>  7 2025-Jan-07 5785-Tevet-07
#>  8 2025-Jan-08 5785-Tevet-08
#>  9 2025-Jan-09 5785-Tevet-09
#> 10 2025-Jan-10 5785-Tevet-10
#> # ℹ 355 more rows
…
