…
#> [13] 2025-03-01 2025-03-02 2025-03-03 2025-03-04 2025-03-05 2025-03-06
#> [19] 2025-03-07 2025-04-01 2025-04-02 2025-04-03 2025-04-04 2025-04-05
#> [25] 2025-04-06 2025-04-07 2025-05-01 2025-05-02 2025-05-03 2025-05-04
#> [31] 2025-05-05
as_iso("2016-01-01")
#> <iso[1]>
#> [1] 2015-53-05
as_iso(Sys.Date())
#> <iso[1]>
#> [1] 2026-01-02
tibble::tibble(
  x = seq(as.Date("2025-01-01"), as.Date("2025-12-31"), by = "day"),
  y = as_iso(x)
)
#> # A tibble: 365 × 2
#>    x                   y
#>    <date>          <ISO>
#>  1 2025-01-01 2025-01-03
#>  2 2025-01-02 2025-01-04
#>  3 2025-01-03 2025-01-05
#>  4 2025-01-04 2025-01-06
#>  5 2025-01-05 2025-01-07
#>  6 2025-01-06 2025-02-01
#>  7 2025-01-07 2025-02-02
#>  8 2025-01-08 2025-02-03
#>  9 2025-01-09 2025-02-04
#> 10 2025-01-10 2025-02-05
#> # ℹ 355 more rows
```
